2019-01-01 12:00:00;Sensor0;O3;50;
2019-01-01 12:00:00;Sensor0;SO2;100;
2019-01-01 12:00:00;Sensor0;NO2;120;
2019-01-01 12:00:00;Sensor0;PM10;40;
2019-01-01 12:00:00;Sensor1;O3;30;
2019-01-01 12:00:00;Sensor1;SO2;120;
2019-01-01 12:00:00;Sensor1;NO2;150;
2019-01-01 12:00:00;Sensor1;PM10;50;
2019-01-02 12:00:00;Sensor2;O3;75;
2019-01-02 12:00:00;Sensor2;SO2;100;
2019-01-01 12:00:00;Sensor2;NO2;80;
2019-01-01 12:00:00;Sensor2;PM10;40;
2019-01-02 12:00:00;Sensor3;O3;40;
2019-01-02 12:00:00;Sensor3;SO2;120;
2019-01-03 12:00:00;Sensor3;NO2;150;
2019-01-02 12:00:00;Sensor3;PM10;30;
2019-01-01 12:00:00;Sensor4;O3;60;
2019-01-02 12:00:00;Sensor4;SO2;120;
2019-01-03 12:00:00;Sensor4;NO2;100;
2019-01-01 12:00:00;Sensor4;PM10;40;
